{
  "server": {
    "port": 8080
  },
  "database": {
    "url": "mongodb://ashan:ashan@ds044679.mlab.com:44679/users"
  },
  "email": {
    "microservice_host": "wf-email-review.herokuapp.com"
  },
  "oops": {
    "microservice_host": "wf-oops-review.herokuapp.com"
  }
}
